HW04
…
glass_data

# A tibble: 38 × 12
      Id    RI    Na    Mg    Al    Si     K    Ca    Ba    Fe Glass_Type
   <dbl> <dbl> <dbl> <dbl> <dbl> <dbl> <dbl> <dbl> <dbl> <dbl>      <dbl>
 1   177  1.52  14    2.39  1.56  72.4  0     9.57  0        0          6
 2   178  1.52  13.8  2.41  1.19  72.8  0     9.77  0        0          6
 3   179  1.52  14.5  2.24  1.62  72.4  0     9.26  0        0          6
 4   180  1.52  14.1  2.19  1.66  72.7  0     9.32  0        0          6
 5   181  1.51  14.4  1.74  1.54  74.6  0     7.59  0        0          6
 6   182  1.52  15.0  0.78  1.74  72.5  0     9.95  0        0          6
 7   183  1.52  14.2  0     2.09  72.7  0    10.9   0        0          6
 8   184  1.52  14.6  0     0.56  73.5  0    11.2   0        0          6
 9   185  1.51  17.4  0     0.34  75.4  0     6.65  0        0          6
10   186  1.51  13.7  3.2   1.81  72.8  1.76  5.43  1.19     0          7
# ℹ 28 more rows
# ℹ 1 more variable: Glass_type_name <chr>
…
